<svg width="24" height="24" viewBox="0 0 24 24" fill="none" xmlns="http://www.w3.org/2000/svg">
	<g clip-path="url(#clip0_205_48374)">
		<path fill-rule="evenodd" clip-rule="evenodd"
			d="M11.4444 19.6506C11.6089 19.7652 11.8022 19.8264 12 19.8264C12.2652 19.8264 12.5196 19.7165 12.7071 19.5208C12.8946 19.3251 13 19.0597 13 18.7829C13 18.5766 12.9414 18.3748 12.8315 18.2032C12.7216 18.0316 12.5654 17.8979 12.3827 17.8189C12.2 17.7399 11.9989 17.7193 11.8049 17.7595C11.6109 17.7998 11.4327 17.8992 11.2929 18.0451C11.153 18.191 11.0578 18.377 11.0192 18.5794C10.9806 18.7818 11.0004 18.9916 11.0761 19.1823C11.1518 19.3729 11.28 19.5359 11.4444 19.6506ZM12.7071 15.3469C12.8946 15.1512 13 14.8858 13 14.609V8.34817C13 8.07142 12.8946 7.80601 12.7071 7.61032C12.5196 7.41463 12.2652 7.30469 12 7.30469C11.7348 7.30469 11.4804 7.41463 11.2929 7.61032C11.1054 7.80601 11 8.07142 11 8.34817V14.609C11 14.8858 11.1054 15.1512 11.2929 15.3469C11.4804 15.5426 11.7348 15.6525 12 15.6525C12.2652 15.6525 12.5196 15.5426 12.7071 15.3469Z"
			fill="#292929" />
		<path
			d="M10.2589 2.08046C11.0245 0.725941 12.9755 0.725939 13.7411 2.08045L23.3133 19.0159C24.0669 20.3491 23.1037 22 21.5722 22H2.4278C0.896319 22 -0.0669025 20.3491 0.686674 19.0159L10.2589 2.08046Z"
			fill="black" fill-opacity="0.2" />
	</g>
	<defs>
		<clipPath id="clip0_205_48374">
			<rect width="24" height="24" fill="white" />
		</clipPath>
	</defs>
</svg>